{
  "PieChartDB": [
       { 
    "labels": ["Excellent", "Very Good", "Good", "Fair", "Poor"],
    "datasets": [
      {
        "label": "Views for 2020 (in Lakhs) ",
        "data": [8, 3, 1, 2, 1],
        "backgroundColor": [
          "#adadeb",
          "#ffff00",
          "#b3ff86",
          "#ffcce6",
          "#ccffff",
          "green",
          "pink"
        ]
      }
    ]
  }
  ],
  "chartDB": [
    {
  "labels": ["Jan","Feb","March","April","May"],
  "datasets": [
    {
      "label": "Program in 2020  ",
      "data": [
        3,
        2,
        1,
        2,
        5
      ],
      "borderColor": [
        "rgba(54,160,235,0.2)"
      ],
      "backgroundColor": "#b3b3ff",
      "pointBackgroundColor": "rgba(54,162,235,0.2)",
      "pointBorderColor": "rgba(255,162,235,0.2)"
    },
    {
      "label": "Programs in 2019 ",
      "data": [
        2,
        1,
        3,
        5,
        4
      ],
      "borderColor": "#b3ffec",
      "backgroundColor": "#b3ecff",
      "pointBackgroundColor": "rgba(255,206,86,0.2)",
      "pointBorderColor": "rgba(255,206,86,0.2)"
    },
    {
      "label": "Programs in 2018 ",
      "data": [
        6,
        2,
        4,
        3,
        6
      ],
      "borderColor": "#b3ccff",
      "backgroundColor": "#b3ccff",
      "pointBackgroundColor": "rgba(255,206,86,0.2)",
      "pointBorderColor": "rgba(255,206,86,0.2)"
    }
  ]
}
  ]
}